EDA of Happy DB
…
## # A tibble: 2 x 10
##   reflection_peri entertainment exercise family  food people  pets school
##   <fct>                    <dbl>    <dbl>  <dbl> <dbl>  <dbl> <dbl>  <dbl>
## 1 hours_24                   3.4      7.    20.5  15.7   34.7   3.8    3.5
## 2 months_3                   3        6.2   22.1  10.3   36.4   3.5    5.2
## # ... with 2 more variables: shopping <dbl>, work <dbl>

well not that much of a difference. What about ages? I suspect younger people will care more about gaming

with_categories %>%
  group_by(age) %>%
  summarise(count = n()) %>%
  arrange(desc(count))

## # A tibble: 129 x 2
##    age   count
##    <chr> <int>
##  1 29     2912
##  2 26     2687
##  3 25     2634
##  4 27     2535
##  5 30     2376
##  6 28     2374
##  7 31     2104
##  8 24     1958
##  9 32     1945
## 10 23     1867
## # ... with 119 more rows
…
